{
    "fluidParticipantName": "Fluid",
    "fluidMeshName": "Fluid-Mesh",
    "readDataName": "Displacements0",
    "writeDataName" : "Forces0",
    "participantName" : "Solid",
    "meshName": "Solid-Mesh",
    "mesh": "./mesh/cylinder.dat",
    "root-coords": [0.0, 0.0, 0.0],
    "mbdyn-input": "./map_10n_3x_21j.mbd",
    "mbdyn-output": "./out_mbd",
    "mbdyn-log-location": "./mbd/",
    "vtk-output": "./output/MBDyn-cyl_",
    "precice-config": "../precice-config.xml",
    "displacement-delta": false,
    "write-interval": 1,
    "iterstart": 500,
    "coeff0": 0.1,
    "period": 250,
    "ramp-type": "linear",
    "resultant-file": "./output/resultant.txt",
    "node-socket": "/tmp/mbdyn.node.sock",
    "pre-iteration": 0,
    "read-coords": true,
    "every-iteration": false
}
