# Generated by MBDyn StructMappingExtForce(1)
# claudio@unknown
# Mon Mar 30 11:48:28 2020
# labels: off
# points: 55
# surface: root0.dat
# output: flap_5n_5x_H.dat
# order: 2
# basenode: 12
# weight: 2
0.000000e+00 0.000000e+00 0.000000e+00
0.000000e+00 5.000000e-03 0.000000e+00
0.000000e+00 0.000000e+00 5.000000e-03
0.000000e+00 -5.000000e-03 0.000000e+00
0.000000e+00 0.000000e+00 -5.000000e-03
3.500000e-02 0.000000e+00 0.000000e+00
3.500000e-02 5.000000e-03 0.000000e+00
3.500000e-02 0.000000e+00 5.000000e-03
3.500000e-02 -5.000000e-03 0.000000e+00
3.500000e-02 0.000000e+00 -5.000000e-03
7.000000e-02 0.000000e+00 0.000000e+00
7.000000e-02 5.000000e-03 0.000000e+00
7.000000e-02 0.000000e+00 5.000000e-03
7.000000e-02 -5.000000e-03 0.000000e+00
7.000000e-02 0.000000e+00 -5.000000e-03
1.050000e-01 0.000000e+00 0.000000e+00
1.050000e-01 5.000000e-03 0.000000e+00
1.050000e-01 0.000000e+00 5.000000e-03
1.050000e-01 -5.000000e-03 0.000000e+00
1.050000e-01 0.000000e+00 -5.000000e-03
1.400000e-01 0.000000e+00 0.000000e+00
1.400000e-01 5.000000e-03 0.000000e+00
1.400000e-01 0.000000e+00 5.000000e-03
1.400000e-01 -5.000000e-03 0.000000e+00
1.400000e-01 0.000000e+00 -5.000000e-03
1.750000e-01 0.000000e+00 0.000000e+00
1.750000e-01 5.000000e-03 0.000000e+00
1.750000e-01 0.000000e+00 5.000000e-03
1.750000e-01 -5.000000e-03 0.000000e+00
1.750000e-01 0.000000e+00 -5.000000e-03
2.100000e-01 0.000000e+00 0.000000e+00
2.100000e-01 5.000000e-03 0.000000e+00
2.100000e-01 0.000000e+00 5.000000e-03
2.100000e-01 -5.000000e-03 0.000000e+00
2.100000e-01 0.000000e+00 -5.000000e-03
2.450000e-01 0.000000e+00 0.000000e+00
2.450000e-01 5.000000e-03 0.000000e+00
2.450000e-01 0.000000e+00 5.000000e-03
2.450000e-01 -5.000000e-03 0.000000e+00
2.450000e-01 0.000000e+00 -5.000000e-03
2.800000e-01 0.000000e+00 0.000000e+00
2.800000e-01 5.000000e-03 0.000000e+00
2.800000e-01 0.000000e+00 5.000000e-03
2.800000e-01 -5.000000e-03 0.000000e+00
2.800000e-01 0.000000e+00 -5.000000e-03
3.150000e-01 0.000000e+00 0.000000e+00
3.150000e-01 5.000000e-03 0.000000e+00
3.150000e-01 0.000000e+00 5.000000e-03
3.150000e-01 -5.000000e-03 0.000000e+00
3.150000e-01 0.000000e+00 -5.000000e-03
3.500000e-01 0.000000e+00 0.000000e+00
3.500000e-01 5.000000e-03 0.000000e+00
3.500000e-01 0.000000e+00 5.000000e-03
3.500000e-01 -5.000000e-03 0.000000e+00
3.500000e-01 0.000000e+00 -5.000000e-03
