{
    "force-adapter": true,
    "force-params": {"type": "nodal", "nodes":  [0, 2, 5, 7], "components": [0.0, 0.25, 0.0]},
    "time-params": {"type": "ramp", "params": [0.9, 0.0, 1, 0.1]},
    "num-repeat": 5,
    "mesh": "./mesh/prism.dat",
    "mbdyn-input": "./map_10n_3x_21j.mbd",
    "mbdyn-output": "./out_mbd",
    "mbdyn-log-location": "./mbd/",
    "root-coords": [0.0, 0.0, 0.0],
    "displacement-delta": false,
    "write-interval": 1,
    "vtk-output": "./output/force_",
    "dt": 0.01,
    "iterstart": 0,
    "coeff0": 1.0,
    "period": 1,
    "ramp-type": "linear",
    "resultant-file": "./output/resultant.txt",
    "node-socket": "/tmp/mbdyn.node.sock",
    "read-coords": true
}
