 0	     0	        0.35	   -0.009996	 -0.00499875	begin
 0	     0	     0.35004	 -0.00965057	 -0.00499875	after solve
 0	     0	     0.35004	 -0.00965057	 -0.00499875	after putForces false
 0	     0	     0.35004	 -0.00965057	 -0.00499875	begin
 0	     0	    0.350031	 -0.00971639	 -0.00499875	after solve
 0	     0	    0.350031	 -0.00971639	 -0.00499875	after putForces false
 0	     0	    0.350031	 -0.00971639	 -0.00499875	begin
 0	     0	    0.350038	   -0.009659	 -0.00499875	after solve
 0	     0	    0.350038	   -0.009659	 -0.00499875	after putForces false
 0	     0	    0.350038	   -0.009659	 -0.00499875	begin
 0	     0	    0.350038	 -0.00965674	 -0.00499875	after solve
 0	     0	    0.350038	 -0.00965674	 -0.00499875	after putForces false
 0	     0	    0.350038	 -0.00965674	 -0.00499875	begin
 0	     0	     0.35004	 -0.00964003	 -0.00499875	after solve
 0	     0	     0.35004	 -0.00964003	 -0.00499875	after putForces false
 0	     0	     0.35004	 -0.00964003	 -0.00499875	begin
 0	     0	    0.350029	 -0.00974545	 -0.00499875	after solve
 0	     0	    0.350029	 -0.00974545	 -0.00499875	after putForces true
 0	  0.01	    0.350029	 -0.00974545	 -0.00499875	begin
 0	  0.01	    0.350104	 -0.00887777	 -0.00499875	after solve
 0	  0.01	    0.350104	 -0.00887777	 -0.00499875	after putForces false
 0	  0.01	    0.350104	 -0.00887777	 -0.00499875	begin
 0	  0.01	    0.350111	 -0.00880963	 -0.00499875	after solve
 0	  0.01	    0.350111	 -0.00880963	 -0.00499875	after putForces false
 0	  0.01	    0.350111	 -0.00880963	 -0.00499875	begin
 0	  0.01	    0.350103	 -0.00888668	 -0.00499875	after solve
 0	  0.01	    0.350103	 -0.00888668	 -0.00499875	after putForces false
 0	  0.01	    0.350103	 -0.00888668	 -0.00499875	begin
 0	  0.01	    0.350108	 -0.00884327	 -0.00499875	after solve
 0	  0.01	    0.350108	 -0.00884327	 -0.00499875	after putForces false
 0	  0.01	    0.350108	 -0.00884327	 -0.00499875	begin
 0	  0.01	    0.350106	 -0.00885537	 -0.00499875	after solve
 0	  0.01	    0.350106	 -0.00885537	 -0.00499875	after putForces false
 0	  0.01	    0.350106	 -0.00885537	 -0.00499875	begin
 0	  0.01	    0.350109	 -0.00883144	 -0.00499875	after solve
 0	  0.01	    0.350109	 -0.00883144	 -0.00499875	after putForces true
 0	  0.02	    0.350109	 -0.00883144	 -0.00499875	begin
 0	  0.02	    0.350207	 -0.00723728	 -0.00499875	after solve
 0	  0.02	    0.350207	 -0.00723728	 -0.00499875	after putForces false
 0	  0.02	    0.350207	 -0.00723728	 -0.00499875	begin
 0	  0.02	    0.350209	 -0.00721575	 -0.00499875	after solve
 0	  0.02	    0.350209	 -0.00721575	 -0.00499875	after putForces false
 0	  0.02	    0.350209	 -0.00721575	 -0.00499875	begin
 0	  0.02	    0.350215	 -0.00714674	 -0.00499875	after solve
 0	  0.02	    0.350215	 -0.00714674	 -0.00499875	after putForces false
 0	  0.02	    0.350215	 -0.00714674	 -0.00499875	begin
 0	  0.02	    0.350215	 -0.00715186	 -0.00499875	after solve
 0	  0.02	    0.350215	 -0.00715186	 -0.00499875	after putForces false
 0	  0.02	    0.350215	 -0.00715186	 -0.00499875	begin
 0	  0.02	    0.350211	 -0.00719622	 -0.00499875	after solve
 0	  0.02	    0.350211	 -0.00719622	 -0.00499875	after putForces false
 0	  0.02	    0.350211	 -0.00719622	 -0.00499875	begin
 0	  0.02	    0.350212	 -0.00718331	 -0.00499875	after solve
 0	  0.02	    0.350212	 -0.00718331	 -0.00499875	after putForces true
 0	  0.03	    0.350212	 -0.00718331	 -0.00499875	begin
 0	  0.03	    0.350298	 -0.00500143	 -0.00499875	after solve
 0	  0.03	    0.350298	 -0.00500143	 -0.00499875	after putForces false
 0	  0.03	    0.350298	 -0.00500143	 -0.00499875	begin
 0	  0.03	    0.350303	 -0.00492988	 -0.00499875	after solve
 0	  0.03	    0.350303	 -0.00492988	 -0.00499875	after putForces false
 0	  0.03	    0.350303	 -0.00492988	 -0.00499875	begin
 0	  0.03	    0.350296	 -0.00502223	 -0.00499875	after solve
 0	  0.03	    0.350296	 -0.00502223	 -0.00499875	after putForces false
 0	  0.03	    0.350296	 -0.00502223	 -0.00499875	begin
 0	  0.03	    0.350298	 -0.00498701	 -0.00499875	after solve
 0	  0.03	    0.350298	 -0.00498701	 -0.00499875	after putForces false
 0	  0.03	    0.350298	 -0.00498701	 -0.00499875	begin
 0	  0.03	    0.350297	 -0.00500372	 -0.00499875	after solve
 0	  0.03	    0.350297	 -0.00500372	 -0.00499875	after putForces false
 0	  0.03	    0.350297	 -0.00500372	 -0.00499875	begin
 0	  0.03	    0.350305	 -0.00489816	 -0.00499875	after solve
 0	  0.03	    0.350305	 -0.00489816	 -0.00499875	after putForces true
 0	  0.04	    0.350305	 -0.00489816	 -0.00499875	begin
 0	  0.04	    0.350305	 -0.00489816	 -0.00499875	after solve
 0	  0.04	    0.350305	 -0.00489816	 -0.00499875	after putForces false
 0	  0.04	    0.350305	 -0.00489816	 -0.00499875	begin
 0	  0.04	    0.350305	 -0.00489816	 -0.00499875	after solve
 0	  0.04	    0.350305	 -0.00489816	 -0.00499875	after putForces false
 0	  0.04	    0.350305	 -0.00489816	 -0.00499875	begin
 0	  0.04	    0.350305	 -0.00489816	 -0.00499875	after solve
 0	  0.04	    0.350305	 -0.00489816	 -0.00499875	after putForces false
 0	  0.04	    0.350305	 -0.00489816	 -0.00499875	begin
 0	  0.04	    0.350305	 -0.00489816	 -0.00499875	after solve
 0	  0.04	    0.350305	 -0.00489816	 -0.00499875	after putForces false
 0	  0.04	    0.350305	 -0.00489816	 -0.00499875	begin
 0	  0.04	    0.350305	 -0.00489816	 -0.00499875	after solve
 0	  0.04	    0.350305	 -0.00489816	 -0.00499875	after putForces false
 0	  0.04	    0.350305	 -0.00489816	 -0.00499875	begin
 0	  0.04	    0.350305	 -0.00489816	 -0.00499875	after solve
 0	  0.04	    0.350305	 -0.00489816	 -0.00499875	after putForces true
