{
    "meshName": "Solid-Mesh",
    "fluidMeshName": "Fluid-Mesh",
    "readDataName": "Displacements0",
    "writeDataName" : "Forces0",
    "fluidParticipantName": "Fluid",
    "participantName" : "Solid",
    "mesh": "../mesh/root0.dat",
    "root-coords": [0.0, 0.0, 0.0],
    "mbdyn-input": "./mbd/map_5n_5x_11j.mbd",
    "mbdyn-output": "./mbd/root0_out",
    "vtk-output": "./output/root0_",
    "precice-config": "../precice-config_stub.xml",
    "displacement-delta": false,
    "write-interval": 10,
    "iterstart": 10,
    "coeff0": 0.001,
    "period": 190,
    "ramp-type": "linear",
    "resultant-file": "./output/resultant.txt"
}
