{
    "meshName": "Solid-Mesh",
    "fluidMeshName": "Fluid-Mesh-Nodes",
    "readDataName": "Displacements0",
    "writeDataName" : "Forces0",
    "fluidParticipantName": "Fluid",
    "participantName" : "Solid",
    "mesh": "../mesh/reordered_root0.dat",
    "root-coords": [0.0, 0.0, 0.0],
    "mbdyn-input": "./mbd/map_5n_3x_11j.mbd",
    "mbdyn-output": "./mbd/root0_out",
    "vtk-output": "./output/root0_",
    "precice-config": "../precice-config_serial.xml",
    "displacement-delta": false,
    "write-interval": 10,
    "iterstart": 10000,
    "coeff0": 0.005,
    "period": 1500,
    "ramp-type": "cos",
    "resultant-file": "./output/resultant.txt"
}
