# Program NUVOLA GRID
 362
 -0.001110000000    -0.010000000000    -0.005000000000
 -0.001110000000    -0.010000000000    0.005000000000
 0.049528000000    -0.010000000000    0.005000000000
 0.049528000000    -0.010000000000    -0.005000000000
 0.350000000000    -0.010000000000    -0.005000000000
 0.350000000000    -0.010000000000    0.005000000000
 0.350000000000    0.010000000000    -0.005000000000
 0.350000000000    0.010000000000    0.005000000000
 0.049528000000    0.010000000000    -0.005000000000
 0.049528000000    0.010000000000    0.005000000000
 -0.001110000000    0.010000000000    0.005000000000
 -0.001110000000    0.010000000000    -0.005000000000
 0.000431036916    -0.010000000000    0.005000000000
 0.002048212789    -0.010000000000    0.005000000000
 0.003745289464    -0.010000000000    0.005000000000
 0.005526214648    -0.010000000000    0.005000000000
 0.007395131096    -0.010000000000    0.005000000000
 0.009356386248    -0.010000000000    0.005000000000
 0.011414542337    -0.010000000000    0.005000000000
 0.013574387009    -0.010000000000    0.005000000000
 0.015840944452    -0.010000000000    0.005000000000
 0.018219487091    -0.010000000000    0.005000000000
 0.020715547848    -0.010000000000    0.005000000000
 0.023334933011    -0.010000000000    0.005000000000
 0.026083735746    -0.010000000000    0.005000000000
 0.028968350265    -0.010000000000    0.005000000000
 0.031995486706    -0.010000000000    0.005000000000
 0.035172186736    -0.010000000000    0.005000000000
 0.038505839936    -0.010000000000    0.005000000000
 0.042004200987    -0.010000000000    0.005000000000
 0.045675407711    -0.010000000000    0.005000000000
 0.000431036916    -0.010000000000    -0.005000000000
 0.002048212789    -0.010000000000    -0.005000000000
 0.003745289464    -0.010000000000    -0.005000000000
 0.005526214648    -0.010000000000    -0.005000000000
 0.007395131096    -0.010000000000    -0.005000000000
 0.009356386248    -0.010000000000    -0.005000000000
 0.011414542337    -0.010000000000    -0.005000000000
 0.013574387009    -0.010000000000    -0.005000000000
 0.015840944452    -0.010000000000    -0.005000000000
 0.018219487091    -0.010000000000    -0.005000000000
 0.020715547848    -0.010000000000    -0.005000000000
 0.023334933011    -0.010000000000    -0.005000000000
 0.026083735746    -0.010000000000    -0.005000000000
 0.028968350265    -0.010000000000    -0.005000000000
 0.031995486706    -0.010000000000    -0.005000000000
 0.035172186736    -0.010000000000    -0.005000000000
 0.038505839936    -0.010000000000    -0.005000000000
 0.042004200987    -0.010000000000    -0.005000000000
 0.045675407711    -0.010000000000    -0.005000000000
 0.053946705882    -0.010000000000    -0.005000000000
 0.058365411765    -0.010000000000    -0.005000000000
 0.062784117647    -0.010000000000    -0.005000000000
 0.067202823529    -0.010000000000    -0.005000000000
 0.071621529412    -0.010000000000    -0.005000000000
 0.076040235294    -0.010000000000    -0.005000000000
 0.080458941176    -0.010000000000    -0.005000000000
 0.084877647059    -0.010000000000    -0.005000000000
 0.089296352941    -0.010000000000    -0.005000000000
 0.093715058824    -0.010000000000    -0.005000000000
 0.098133764706    -0.010000000000    -0.005000000000
 0.102552470588    -0.010000000000    -0.005000000000
 0.106971176471    -0.010000000000    -0.005000000000
 0.111389882353    -0.010000000000    -0.005000000000
 0.115808588235    -0.010000000000    -0.005000000000
 0.120227294118    -0.010000000000    -0.005000000000
 0.124646000000    -0.010000000000    -0.005000000000
 0.129064705882    -0.010000000000    -0.005000000000
 0.133483411765    -0.010000000000    -0.005000000000
 0.137902117647    -0.010000000000    -0.005000000000
 0.142320823529    -0.010000000000    -0.005000000000
 0.146739529412    -0.010000000000    -0.005000000000
 0.151158235294    -0.010000000000    -0.005000000000
 0.155576941176    -0.010000000000    -0.005000000000
 0.159995647059    -0.010000000000    -0.005000000000
 0.164414352941    -0.010000000000    -0.005000000000
 0.168833058824    -0.010000000000    -0.005000000000
 0.173251764706    -0.010000000000    -0.005000000000
 0.177670470588    -0.010000000000    -0.005000000000
 0.182089176471    -0.010000000000    -0.005000000000
 0.186507882353    -0.010000000000    -0.005000000000
 0.190926588235    -0.010000000000    -0.005000000000
 0.195345294118    -0.010000000000    -0.005000000000
 0.199764000000    -0.010000000000    -0.005000000000
 0.204182705882    -0.010000000000    -0.005000000000
 0.208601411765    -0.010000000000    -0.005000000000
 0.213020117647    -0.010000000000    -0.005000000000
 0.217438823529    -0.010000000000    -0.005000000000
 0.221857529412    -0.010000000000    -0.005000000000
 0.226276235294    -0.010000000000    -0.005000000000
 0.230694941176    -0.010000000000    -0.005000000000
 0.235113647059    -0.010000000000    -0.005000000000
 0.239532352941    -0.010000000000    -0.005000000000
 0.243951058824    -0.010000000000    -0.005000000000
 0.248369764706    -0.010000000000    -0.005000000000
 0.252788470588    -0.010000000000    -0.005000000000
 0.257207176471    -0.010000000000    -0.005000000000
 0.261625882353    -0.010000000000    -0.005000000000
 0.266044588235    -0.010000000000    -0.005000000000
 0.270463294118    -0.010000000000    -0.005000000000
 0.274882000000    -0.010000000000    -0.005000000000
 0.279300705882    -0.010000000000    -0.005000000000
 0.283719411765    -0.010000000000    -0.005000000000
 0.288138117647    -0.010000000000    -0.005000000000
 0.292556823529    -0.010000000000    -0.005000000000
 0.296975529412    -0.010000000000    -0.005000000000
 0.301394235294    -0.010000000000    -0.005000000000
 0.305812941176    -0.010000000000    -0.005000000000
 0.310231647059    -0.010000000000    -0.005000000000
 0.314650352941    -0.010000000000    -0.005000000000
 0.319069058824    -0.010000000000    -0.005000000000
 0.323487764706    -0.010000000000    -0.005000000000
 0.327906470588    -0.010000000000    -0.005000000000
 0.332325176471    -0.010000000000    -0.005000000000
 0.336743882353    -0.010000000000    -0.005000000000
 0.341162588235    -0.010000000000    -0.005000000000
 0.345581294118    -0.010000000000    -0.005000000000
 0.053946705882    -0.010000000000    0.005000000000
 0.058365411765    -0.010000000000    0.005000000000
 0.062784117647    -0.010000000000    0.005000000000
 0.067202823529    -0.010000000000    0.005000000000
 0.071621529412    -0.010000000000    0.005000000000
 0.076040235294    -0.010000000000    0.005000000000
 0.080458941176    -0.010000000000    0.005000000000
 0.084877647059    -0.010000000000    0.005000000000
 0.089296352941    -0.010000000000    0.005000000000
 0.093715058824    -0.010000000000    0.005000000000
 0.098133764706    -0.010000000000    0.005000000000
 0.102552470588    -0.010000000000    0.005000000000
 0.106971176471    -0.010000000000    0.005000000000
 0.111389882353    -0.010000000000    0.005000000000
 0.115808588235    -0.010000000000    0.005000000000
 0.120227294118    -0.010000000000    0.005000000000
 0.124646000000    -0.010000000000    0.005000000000
 0.129064705882    -0.010000000000    0.005000000000
 0.133483411765    -0.010000000000    0.005000000000
 0.137902117647    -0.010000000000    0.005000000000
 0.142320823529    -0.010000000000    0.005000000000
 0.146739529412    -0.010000000000    0.005000000000
 0.151158235294    -0.010000000000    0.005000000000
 0.155576941176    -0.010000000000    0.005000000000
 0.159995647059    -0.010000000000    0.005000000000
 0.164414352941    -0.010000000000    0.005000000000
 0.168833058824    -0.010000000000    0.005000000000
 0.173251764706    -0.010000000000    0.005000000000
 0.177670470588    -0.010000000000    0.005000000000
 0.182089176471    -0.010000000000    0.005000000000
 0.186507882353    -0.010000000000    0.005000000000
 0.190926588235    -0.010000000000    0.005000000000
 0.195345294118    -0.010000000000    0.005000000000
 0.199764000000    -0.010000000000    0.005000000000
 0.204182705882    -0.010000000000    0.005000000000
 0.208601411765    -0.010000000000    0.005000000000
 0.213020117647    -0.010000000000    0.005000000000
 0.217438823529    -0.010000000000    0.005000000000
 0.221857529412    -0.010000000000    0.005000000000
 0.226276235294    -0.010000000000    0.005000000000
 0.230694941176    -0.010000000000    0.005000000000
 0.235113647059    -0.010000000000    0.005000000000
 0.239532352941    -0.010000000000    0.005000000000
 0.243951058824    -0.010000000000    0.005000000000
 0.248369764706    -0.010000000000    0.005000000000
 0.252788470588    -0.010000000000    0.005000000000
 0.257207176471    -0.010000000000    0.005000000000
 0.261625882353    -0.010000000000    0.005000000000
 0.266044588235    -0.010000000000    0.005000000000
 0.270463294118    -0.010000000000    0.005000000000
 0.274882000000    -0.010000000000    0.005000000000
 0.279300705882    -0.010000000000    0.005000000000
 0.283719411765    -0.010000000000    0.005000000000
 0.288138117647    -0.010000000000    0.005000000000
 0.292556823529    -0.010000000000    0.005000000000
 0.296975529412    -0.010000000000    0.005000000000
 0.301394235294    -0.010000000000    0.005000000000
 0.305812941176    -0.010000000000    0.005000000000
 0.310231647059    -0.010000000000    0.005000000000
 0.314650352941    -0.010000000000    0.005000000000
 0.319069058824    -0.010000000000    0.005000000000
 0.323487764706    -0.010000000000    0.005000000000
 0.327906470588    -0.010000000000    0.005000000000
 0.332325176471    -0.010000000000    0.005000000000
 0.336743882353    -0.010000000000    0.005000000000
 0.341162588235    -0.010000000000    0.005000000000
 0.345581294118    -0.010000000000    0.005000000000
 0.350000000000    -0.005000000000    -0.005000000000
 0.350000000000    -0.000000000000    -0.005000000000
 0.350000000000    0.005000000000    -0.005000000000
 0.350000000000    0.005000000000    0.005000000000
 0.350000000000    -0.000000000000    0.005000000000
 0.350000000000    -0.005000000000    0.005000000000
 0.053946705882    0.010000000000    0.005000000000
 0.058365411765    0.010000000000    0.005000000000
 0.062784117647    0.010000000000    0.005000000000
 0.067202823529    0.010000000000    0.005000000000
 0.071621529412    0.010000000000    0.005000000000
 0.076040235294    0.010000000000    0.005000000000
 0.080458941176    0.010000000000    0.005000000000
 0.084877647059    0.010000000000    0.005000000000
 0.089296352941    0.010000000000    0.005000000000
 0.093715058824    0.010000000000    0.005000000000
 0.098133764706    0.010000000000    0.005000000000
 0.102552470588    0.010000000000    0.005000000000
 0.106971176471    0.010000000000    0.005000000000
 0.111389882353    0.010000000000    0.005000000000
 0.115808588235    0.010000000000    0.005000000000
 0.120227294118    0.010000000000    0.005000000000
 0.124646000000    0.010000000000    0.005000000000
 0.129064705882    0.010000000000    0.005000000000
 0.133483411765    0.010000000000    0.005000000000
 0.137902117647    0.010000000000    0.005000000000
 0.142320823529    0.010000000000    0.005000000000
 0.146739529412    0.010000000000    0.005000000000
 0.151158235294    0.010000000000    0.005000000000
 0.155576941176    0.010000000000    0.005000000000
 0.159995647059    0.010000000000    0.005000000000
 0.164414352941    0.010000000000    0.005000000000
 0.168833058824    0.010000000000    0.005000000000
 0.173251764706    0.010000000000    0.005000000000
 0.177670470588    0.010000000000    0.005000000000
 0.182089176471    0.010000000000    0.005000000000
 0.186507882353    0.010000000000    0.005000000000
 0.190926588235    0.010000000000    0.005000000000
 0.195345294118    0.010000000000    0.005000000000
 0.199764000000    0.010000000000    0.005000000000
 0.204182705882    0.010000000000    0.005000000000
 0.208601411765    0.010000000000    0.005000000000
 0.213020117647    0.010000000000    0.005000000000
 0.217438823529    0.010000000000    0.005000000000
 0.221857529412    0.010000000000    0.005000000000
 0.226276235294    0.010000000000    0.005000000000
 0.230694941176    0.010000000000    0.005000000000
 0.235113647059    0.010000000000    0.005000000000
 0.239532352941    0.010000000000    0.005000000000
 0.243951058824    0.010000000000    0.005000000000
 0.248369764706    0.010000000000    0.005000000000
 0.252788470588    0.010000000000    0.005000000000
 0.257207176471    0.010000000000    0.005000000000
 0.261625882353    0.010000000000    0.005000000000
 0.266044588235    0.010000000000    0.005000000000
 0.270463294118    0.010000000000    0.005000000000
 0.274882000000    0.010000000000    0.005000000000
 0.279300705882    0.010000000000    0.005000000000
 0.283719411765    0.010000000000    0.005000000000
 0.288138117647    0.010000000000    0.005000000000
 0.292556823529    0.010000000000    0.005000000000
 0.296975529412    0.010000000000    0.005000000000
 0.301394235294    0.010000000000    0.005000000000
 0.305812941176    0.010000000000    0.005000000000
 0.310231647059    0.010000000000    0.005000000000
 0.314650352941    0.010000000000    0.005000000000
 0.319069058824    0.010000000000    0.005000000000
 0.323487764706    0.010000000000    0.005000000000
 0.327906470588    0.010000000000    0.005000000000
 0.332325176471    0.010000000000    0.005000000000
 0.336743882353    0.010000000000    0.005000000000
 0.341162588235    0.010000000000    0.005000000000
 0.345581294118    0.010000000000    0.005000000000
 0.053946705882    0.010000000000    -0.005000000000
 0.058365411765    0.010000000000    -0.005000000000
 0.062784117647    0.010000000000    -0.005000000000
 0.067202823529    0.010000000000    -0.005000000000
 0.071621529412    0.010000000000    -0.005000000000
 0.076040235294    0.010000000000    -0.005000000000
 0.080458941176    0.010000000000    -0.005000000000
 0.084877647059    0.010000000000    -0.005000000000
 0.089296352941    0.010000000000    -0.005000000000
 0.093715058824    0.010000000000    -0.005000000000
 0.098133764706    0.010000000000    -0.005000000000
 0.102552470588    0.010000000000    -0.005000000000
 0.106971176471    0.010000000000    -0.005000000000
 0.111389882353    0.010000000000    -0.005000000000
 0.115808588235    0.010000000000    -0.005000000000
 0.120227294118    0.010000000000    -0.005000000000
 0.124646000000    0.010000000000    -0.005000000000
 0.129064705882    0.010000000000    -0.005000000000
 0.133483411765    0.010000000000    -0.005000000000
 0.137902117647    0.010000000000    -0.005000000000
 0.142320823529    0.010000000000    -0.005000000000
 0.146739529412    0.010000000000    -0.005000000000
 0.151158235294    0.010000000000    -0.005000000000
 0.155576941176    0.010000000000    -0.005000000000
 0.159995647059    0.010000000000    -0.005000000000
 0.164414352941    0.010000000000    -0.005000000000
 0.168833058824    0.010000000000    -0.005000000000
 0.173251764706    0.010000000000    -0.005000000000
 0.177670470588    0.010000000000    -0.005000000000
 0.182089176471    0.010000000000    -0.005000000000
 0.186507882353    0.010000000000    -0.005000000000
 0.190926588235    0.010000000000    -0.005000000000
 0.195345294118    0.010000000000    -0.005000000000
 0.199764000000    0.010000000000    -0.005000000000
 0.204182705882    0.010000000000    -0.005000000000
 0.208601411765    0.010000000000    -0.005000000000
 0.213020117647    0.010000000000    -0.005000000000
 0.217438823529    0.010000000000    -0.005000000000
 0.221857529412    0.010000000000    -0.005000000000
 0.226276235294    0.010000000000    -0.005000000000
 0.230694941176    0.010000000000    -0.005000000000
 0.235113647059    0.010000000000    -0.005000000000
 0.239532352941    0.010000000000    -0.005000000000
 0.243951058824    0.010000000000    -0.005000000000
 0.248369764706    0.010000000000    -0.005000000000
 0.252788470588    0.010000000000    -0.005000000000
 0.257207176471    0.010000000000    -0.005000000000
 0.261625882353    0.010000000000    -0.005000000000
 0.266044588235    0.010000000000    -0.005000000000
 0.270463294118    0.010000000000    -0.005000000000
 0.274882000000    0.010000000000    -0.005000000000
 0.279300705882    0.010000000000    -0.005000000000
 0.283719411765    0.010000000000    -0.005000000000
 0.288138117647    0.010000000000    -0.005000000000
 0.292556823529    0.010000000000    -0.005000000000
 0.296975529412    0.010000000000    -0.005000000000
 0.301394235294    0.010000000000    -0.005000000000
 0.305812941176    0.010000000000    -0.005000000000
 0.310231647059    0.010000000000    -0.005000000000
 0.314650352941    0.010000000000    -0.005000000000
 0.319069058824    0.010000000000    -0.005000000000
 0.323487764706    0.010000000000    -0.005000000000
 0.327906470588    0.010000000000    -0.005000000000
 0.332325176471    0.010000000000    -0.005000000000
 0.336743882353    0.010000000000    -0.005000000000
 0.341162588235    0.010000000000    -0.005000000000
 0.345581294118    0.010000000000    -0.005000000000
 0.000431036916    0.010000000000    -0.005000000000
 0.002048212789    0.010000000000    -0.005000000000
 0.003745289464    0.010000000000    -0.005000000000
 0.005526214648    0.010000000000    -0.005000000000
 0.007395131096    0.010000000000    -0.005000000000
 0.009356386248    0.010000000000    -0.005000000000
 0.011414542337    0.010000000000    -0.005000000000
 0.013574387009    0.010000000000    -0.005000000000
 0.015840944452    0.010000000000    -0.005000000000
 0.018219487091    0.010000000000    -0.005000000000
 0.020715547848    0.010000000000    -0.005000000000
 0.023334933011    0.010000000000    -0.005000000000
 0.026083735746    0.010000000000    -0.005000000000
 0.028968350265    0.010000000000    -0.005000000000
 0.031995486706    0.010000000000    -0.005000000000
 0.035172186736    0.010000000000    -0.005000000000
 0.038505839936    0.010000000000    -0.005000000000
 0.042004200987    0.010000000000    -0.005000000000
 0.045675407711    0.010000000000    -0.005000000000
 0.000431036916    0.010000000000    0.005000000000
 0.002048212789    0.010000000000    0.005000000000
 0.003745289464    0.010000000000    0.005000000000
 0.005526214648    0.010000000000    0.005000000000
 0.007395131096    0.010000000000    0.005000000000
 0.009356386248    0.010000000000    0.005000000000
 0.011414542337    0.010000000000    0.005000000000
 0.013574387009    0.010000000000    0.005000000000
 0.015840944452    0.010000000000    0.005000000000
 0.018219487091    0.010000000000    0.005000000000
 0.020715547848    0.010000000000    0.005000000000
 0.023334933011    0.010000000000    0.005000000000
 0.026083735746    0.010000000000    0.005000000000
 0.028968350265    0.010000000000    0.005000000000
 0.031995486706    0.010000000000    0.005000000000
 0.035172186736    0.010000000000    0.005000000000
 0.038505839936    0.010000000000    0.005000000000
 0.042004200987    0.010000000000    0.005000000000
 0.045675407711    0.010000000000    0.005000000000
 180
  1  2  13  32
  32  13  14  33
  33  14  15  34
  34  15  16  35
  35  16  17  36
  36  17  18  37
  37  18  19  38
  38  19  20  39
  39  20  21  40
  40  21  22  41
  41  22  23  42
  42  23  24  43
  43  24  25  44
  44  25  26  45
  45  26  27  46
  46  27  28  47
  47  28  29  48
  48  29  30  49
  49  30  31  50
  50  31  3  4
  4  3  118  51
  51  118  119  52
  52  119  120  53
  53  120  121  54
  54  121  122  55
  55  122  123  56
  56  123  124  57
  57  124  125  58
  58  125  126  59
  59  126  127  60
  60  127  128  61
  61  128  129  62
  62  129  130  63
  63  130  131  64
  64  131  132  65
  65  132  133  66
  66  133  134  67
  67  134  135  68
  68  135  136  69
  69  136  137  70
  70  137  138  71
  71  138  139  72
  72  139  140  73
  73  140  141  74
  74  141  142  75
  75  142  143  76
  76  143  144  77
  77  144  145  78
  78  145  146  79
  79  146  147  80
  80  147  148  81
  81  148  149  82
  82  149  150  83
  83  150  151  84
  84  151  152  85
  85  152  153  86
  86  153  154  87
  87  154  155  88
  88  155  156  89
  89  156  157  90
  90  157  158  91
  91  158  159  92
  92  159  160  93
  93  160  161  94
  94  161  162  95
  95  162  163  96
  96  163  164  97
  97  164  165  98
  98  165  166  99
  99  166  167  100
  100  167  168  101
  101  168  169  102
  102  169  170  103
  103  170  171  104
  104  171  172  105
  105  172  173  106
  106  173  174  107
  107  174  175  108
  108  175  176  109
  109  176  177  110
  110  177  178  111
  111  178  179  112
  112  179  180  113
  113  180  181  114
  114  181  182  115
  115  182  183  116
  116  183  184  117
  117  184  6  5
  7  187  188  8
  187  186  189  188
  186  185  190  189
  185  5  6  190
  10  9  258  191
  191  258  259  192
  192  259  260  193
  193  260  261  194
  194  261  262  195
  195  262  263  196
  196  263  264  197
  197  264  265  198
  198  265  266  199
  199  266  267  200
  200  267  268  201
  201  268  269  202
  202  269  270  203
  203  270  271  204
  204  271  272  205
  205  272  273  206
  206  273  274  207
  207  274  275  208
  208  275  276  209
  209  276  277  210
  210  277  278  211
  211  278  279  212
  212  279  280  213
  213  280  281  214
  214  281  282  215
  215  282  283  216
  216  283  284  217
  217  284  285  218
  218  285  286  219
  219  286  287  220
  220  287  288  221
  221  288  289  222
  222  289  290  223
  223  290  291  224
  224  291  292  225
  225  292  293  226
  226  293  294  227
  227  294  295  228
  228  295  296  229
  229  296  297  230
  230  297  298  231
  231  298  299  232
  232  299  300  233
  233  300  301  234
  234  301  302  235
  235  302  303  236
  236  303  304  237
  237  304  305  238
  238  305  306  239
  239  306  307  240
  240  307  308  241
  241  308  309  242
  242  309  310  243
  243  310  311  244
  244  311  312  245
  245  312  313  246
  246  313  314  247
  247  314  315  248
  248  315  316  249
  249  316  317  250
  250  317  318  251
  251  318  319  252
  252  319  320  253
  253  320  321  254
  254  321  322  255
  255  322  323  256
  256  323  324  257
  257  324  7  8
  11  12  325  344
  344  325  326  345
  345  326  327  346
  346  327  328  347
  347  328  329  348
  348  329  330  349
  349  330  331  350
  350  331  332  351
  351  332  333  352
  352  333  334  353
  353  334  335  354
  354  335  336  355
  355  336  337  356
  356  337  338  357
  357  338  339  358
  358  339  340  359
  359  340  341  360
  360  341  342  361
  361  342  343  362
  362  343  9  10
