{
    "fluidParticipantName": "Fluid",
    "fluidMeshName": "Fluid-Mesh",
    "readDataName": "Displacements0",
    "writeDataName" : "Forces0",
    "participantName" : "Solid",
    "meshName": "Solid-Mesh",
    "mesh": "./MBDyn/mesh/flap.dat",
    "root-coords": [0.0, 0.0, 0.0],
    "mbdyn-input": "./MBDyn/map_10n_3x_21j.mbd",
    "mbdyn-output": "./MBDyn/out_mbd",
    "mbdyn-log-location": "./MBDyn/mbd/",
    "vtk-output": "./MBDyn/output/MBDyn-OF_",
    "precice-config": "./precice-config.xml",
    "displacement-delta": false,
    "write-interval": 20,
    "iterstart": 0,
    "coeff0": 0.01,
    "period": 198,
    "ramp-type": "linear",
    "resultant-file": "./MBDyn/output/resultant.txt",
    "node-socket": "/tmp/mbdyn.node.sock",
    "pre-iteration": 0,
    "read-coords": true,
    "every-iteration": false
}
