{
    "force-adapter": false,
    "displacement": {"tip": 0.05,"length": 0.35, "plane": "xy" },
    "time-params": {"type": "ramp", "params": [0.9, 0.0, 1.0, 0.1]},
    "participant-name": "Solid",
    "mesh-name": "Solid-Mesh",
    "read-data-name": "Forces0",
    "write-data-name" : "Displacements0",
    "mesh": "../mesh/cylinder.dat",
    "root-coords": [0.0, 0.0, 0.0],
    "precice-config": "../precice-config.xml",
    "displacement-delta": false,
    "write-interval": 1,
    "vtk-output": "./output/disp_"
}
