{
    "force-adapter": true,
    "force-params": {"type": "nodal", "nodes":  [0, 2, 5, 7], "components": [0.0, 0.0, 0.0]},
    "time-params": {"type": "none"},
    "participant-name": "Fluid",
    "mesh-name": "Fluid-Mesh",
    "read-data-name": "Displacements0",
    "write-data-name" : "Forces0",
    "mesh": "../MBDyn/mesh/root0.dat",
    "root-coords": [0.0, 0.0, 0.0],
    "precice-config": "../precice-config.xml",
    "displacement-delta": false,
    "write-interval": 1,
    "vtk-output": "./output/csm1_"
}
