{
    "fluidParticipantName": "Fluid",
    "fluidMeshName": "Fluid-Mesh",
    "readDataName": "Displacements0",
    "writeDataName" : "Forces0",
    "participantName" : "Solid",
    "meshName": "Solid-Mesh",
    "mesh": "./mesh/root0.dat",
    "root-coords": [0.0, 0.0, 0.0],
    "mbdyn-input": "./map_5n_3x_11j_g.mbd",
    "mbdyn-output": "./out_mbd",
    "mbdyn-log-location": "./mbd/",
    "vtk-output": "./output/MBDyn-OF_",
    "precice-config": "../precice-config.xml",
    "displacement-delta": false,
    "write-interval": 20,
    "iterstart": 0,
    "coeff0": 1,
    "period": 0,
    "ramp-type": "none",
    "resultant-file": "./output/resultant.txt",
    "node-socket": "/tmp/mbdyn3.node.sock",
    "pre-iteration": 0,
    "read-coords": true,
    "every-iteration": false
}
